....
----------------------------------------------------------------------
Ran 4 tests in 0.001s

OK
Name             Stmts   Miss Branch BrPart  Cover   Missing
------------------------------------------------------------
Netflix.py          51      3      6      1    93%   26-29, 22->26
TestNetflix.py      25      0      0      0   100%
------------------------------------------------------------
TOTAL               76      3      6      1    95%
