......
----------------------------------------------------------------------
Ran 6 tests in 0.002s

OK
Name             Stmts   Miss Branch BrPart  Cover   Missing
------------------------------------------------------------
Netflix.py          57      4     16      2    92%   26-29, 106, 22->26, 105->106
TestNetflix.py      38      0      0      0   100%
------------------------------------------------------------
TOTAL               95      4     16      2    95%

