15571:
4.82
3.82
3.52
16495:
4.01
3.77
4.19
4.58
3.46
4.83
4.83
4.58
3.30
4.26
4.43
4.83
3.70
3.95
3.92
3.34
3.86
3.25
4.43
3.25
4.17
4.06
3.29
3.99
4.06
4.06
3.70
3.70
3.29
3.77
1488:
4.56
3.02
4.00
3.82
3.86
4.35
4.06
3.85
4.43
4.23
3.49
4.39
3.94
3.49
4.19
3.21
4.35
5.36
3.49
2.89
3.91
4.03
3.43
4.35
3.88
4.06
4.75
4.03
4.65
4.39
3.27
3.50
3.02
4.75
4.65
4.35
3.61
4.43
4.04
3.36
3.96
4.35
4.06
3.50
15032:
2050:
3.29
3.29
3.29
4669:
2.94
3.97
3.66
4.28
4.10
3.54
3.59
14410:
4.61
3.72
3.66
3.88
3.57
4.03
3.06
3.68
4.65
4.94
4.39
4.07
4.78
4.16
4.52
3.52
4.63
3.36
3.74
3.70
4.12
5.10
4.12
3.49
4.27
3.02
3.91
4.08
4.13
4.10
3.68
4.18
3.79
4.06
3.29
3.52
4.94
4.47
4.94
4.39
4.04
5.30
3.29
4.68
3.92
3.28
4.27
5.15
5.10
5.42
3.36
3.53
4.55
4.33
4.07
5.32
4.55
4.27
4.27
4.11
3.68
5.10
4.07
4.64
5.49
4.01
4.01
3.57
4.31
4.26
4.07
4.27
4.05
4.52
3.90
3.72
3.37
3.97
3.66
4.40
4.03
3.54
4.07
4.12
4.37
4.07
4.05
3.28
4.06
3.87
4.40
3.91
3.73
4.25
4.52
3.95
3.68
3.52
3.06
3.57
4.30
4.72
4.02
4.02
4.40
4.27
4.90
4.65
4.75
4.63
3.91
4.68
3.84
4.24
4.44
4.24
4.72
4.75
4.45
15461:
1819:
3.89
3.83
4.23
2.83
3.47
3.11
4.11
3.19
3.02
2.97
3.36
2.21
3.26
3.11
2.54
4.47
2.83
3.75
2.99
3.65
3.36
2.83
3.84
3.47
3.16
3.89
4.06
1232:
4.48
3.31
3.83
11110:
3.92
4.30
3.94
4.08
2738:
3.02
4.06
3.83
3.91
4.06
4.06
2.69
11782:
2.09
3.29
3.56
3.70
2.78
3.39
14754:
3.77
4.00
3.77
4.00
3.77
2695:
4.11
4.20
4.06
3.83
4.56
4.11
14982:
2.61
2.56
1.53
2.57
2.42
1.12
2.86
2.44
0.74
2.90
2.48
2.36
2.68
3.28
2.55
2.57
2.80
0.74
3.10
2.23
2.47
2.63
1.86
2.80
2.42
2.91
2.96
2.75
3.01
3.28
2.91
3.06
1.86
2.44
2.57
2.75
3.01
1.44
2.44
2.32
2.16
2.42
2.90
2.45
2.36
1.53
2.92
2.44
2.61
2.35
2.53
2.81
13562:
2.50
2.50
3.08
2.93
10955:
4.13
4.93
4.93
13433:
4.02
3.69
3.29
3.54
3.95
3.58
3.42
3.22
3.70
3.93
3.22
2.99
3.76
3.75
3.75
3.48
3.75
3.48
3.16
4.82
2.99
3.08
4.53
3.85
3.69
3.17
3.20
4.81
3.12
3.16
3.93
3.75
4.02
3.74
3.44
3.66
4.34
3.93
3.42
3.29
3.48
3.87
4.18
3.58
3.66
3.29
4.53
3.94
3.42
3.85
4.61
3.79
4.00
4.00
3.66
3.08
3.94
3.70
3.70
4.62
3.16
3.87
2.57
3.54
3.35
3.12
3.22
3.42
3.55
3.09
4.53
3.42
2.92
4.82
3.75
3.42
3.54
17349:
5.19
3.13
3.90
3.56
4.13
3.56
4.30
3021:
2.01
1.54
2.06
1.54
1.42
2.02
2.31
1.54
0.53
1.96
1.95
2.52
1.42
2.31
2.24
2.03
0.53
2.05
2.08
1.95
2.09
0.53
1.95
1.89
1.78
2.52
2.02
4204:
4.10
4.59
4.65
12457:
3.48
526:
3.37
12290:
2.89
1620:
3.10
3.23
1472:
2.88
1.86
2.15
3.10
1.86
2.88
2.17
4247:
2.98
2.91
4.02
3.90
3.77
2.92
3.15
2.65
3.60
2.91
3.21
4.02
2.71
3.24
3.52
3.06
3.29
2.71
3.98
3.75
2.76
3.33
3.08
3.98
3.42
3.15
3.86
3.02
2.91
3.07
2.79
3.11
2.91
2.71
3.87
3.63
3.40
2.91
3.33
3.23
2.99
2.73
11817:
2.87
11794:
2.47
2.55
2.97
3.28
3.28
1.61
2.83
2.83
2.88
2.63
2.55
2.83
15305:
3.87
4.03
3.79
3.95
4.64
3.79
4.02
2.22
4.63
4.50
4.50
3.95
3.79
4.50
3.97
4.63
4.15
4.14
4.96
4.92
4.51
4.55
5.56
4.14
4.73
4.55
3.96
4.05
3.36
4.90
4.03
4.30
3.96
4.90
3.33
4.09
3.00
5.56
4.15
4.51
3.65
3.76
3.56
4.63
4.78
2212:
3.50
3.56
3.72
3.84
4.02
3.78
3.50
3.77
3.57
4.66
3.12
4.29
4.00
3.94
4.05
4.04
4.31
5.00
4.61
3.95
3.70
5.39
4.54
2.75
4.45
4.50
3.47
3.98
3.50
4.30
4.25
4.25
3.23
3.91
4.11
4.34
4.66
4.42
4.31
3.66
4.99
3.18
3.77
4.20
4.02
4.06
3.80
3.72
4.26
4.05
4.56
4.31
4.25
5.00
4.10
3.95
3.82
4.20
4.43
3.61
4.24
4.29
4.43
3.88
4.83
4.01
4.56
4.08
3.73
4.67
3.74
4.44
3.74
4.20
3.94
4.04
3.38
3.89
4.21
4.16
3.84
4.25
4.08
4.67
3.68
4.25
4.08
3.58
4.31
4.46
4.03
4.26
3.69
3.07
4.35
4.26
4.07
4.31
4.07
4.52
4.06
4.07
4.31
4.01
4.44
3.45
4.63
3.69
4.82
3117:
3.73
4.15
3.73
330:
3.49
3.25
3.27
3.10
2.67
3.49
3.10
3.20
3.33
3.62
3.40
2.80
3.25
3.72
4.34
3.61
3.81
3.50
4.18
3.93
3.33
3.65
4.03
3.27
3.47
2.80
3.90
3.50
3.94
3.66
3.74
3.09
3.17
3.41
3.43
3.45
3.11
3.52
2.64
3.09
3.58
3.49
3.66
4.10
3.93
3.19
3.33
3.89
3.44
3.69
3.50
3.78
2.98
2.57
3.26
3.72
3.18
2.85
3.93
3.83
3.63
3.76
3.61
3.77
3.70
3.12
3.31
3.26
3.38
3.99
3.69
3.50
2.67
4.09
3.81
3.16
3.85
3.19
3.59
3.92
4.13
3.26
3.80
3.88
3.06
3.48
3.60
3.27
4.07
4.13
2.69
3.20
4.05
4.08
2.69
3.34
3.16
3.80
3.09
4.05
3.76
2.28
3.78
3.79
3.66
3.02
4.09
3.67
3.65
3.67
3.45
3.16
3.42
3.31
3.06
4.37
3.44
3.45
3.71
4.08
4.03
3.65
3.66
3.97
3.50
3.41
3.15
4.01
4.03
2.90
3.48
3.68
3.48
3.68
2.84
2.79
2.85
3.55
4.04
3.72
3.70
3.69
2.62
3.43
3.22
3.26
3.29
3.27
3.46
3.76
3.08
3.76
3.52
3.36
3.66
3.07
3.10
3.32
3.37
3.45
3.61
2.90
3.40
4.75
4.61
3.58
3.66
3.40
2.77
3.10
3.37
3.83
2.86
3.95
3.66
3.14
4.75
3.39
3.66
3.62
4.11
2.91
3.40
3.24
4.18
3.45
2.94
3.95
3.61
3.24
2.89
4.09
3.18
3.16
3.32
3.14
2.97
2.93
3.37
3.38
4.18
3.01
3.61
2.91
3.20
3.68
3.38
2.09
4.08
3.61
3.27
3.88
3.69
3.97
3.47
3.25
3.16
3.31
3.87
4.00
3.07
3.66
3.09
2.55
3.61
3.24
2.90
3.81
3.27
3.22
4.12
3.83
2.43
3.21
4.13
3.70
4.04
3.18
3.40
3.02
3.49
3.44
2.09
2.90
2.79
3.50
2.91
3.39
2.49
2.58
2.59
3.23
3.07
2.99
3.38
3.59
3.71
2.85
3.90
3.39
3.27
3.18
4.37
3.08
4.37
3.96
3.31
3.82
3.40
3.48
3.23
3.06
3.07
3.09
3.80
3.63
4.13
2.49
3.40
4.44
3.51
3.65
3.25
3.57
3.24
3.63
3.21
3.99
4.21
2.77
4.75
4.44
3.27
2.72
3.07
3.52
2.99
4.00
3.00
3.72
2.84
2.89
3.76
3.21
3.12
4.29
2.97
3.42
3.39
3.65
3.78
3.83
3.34
3.63
3.39
3.94
3.89
4.00
3.39
3.75
3.80
3.66
3.35
2.45
2.28
3.50
4.44
3.60
3.44
3.79
3.73
3.84
2.62
2.76
3.99
3.22
3.04
3.34
4.54
3.14
3.83
4.06
3.55
3.09
3.45
3.07
3.53
2.67
3.61
3.58
3.94
2.69
3.61
3.93
3.18
2.43
4.05
4.01
3.06
3.20
4.75
4.08
4.03
2.99
3.16
3.06
3.81
3.43
3.27
3.07
3.51
2.77
4.44
2.95
3.40
3.72
3.77
4.14
4.48
3.36
3.46
3.36
3.94
3.34
3.27
4.03
2.49
3.52
3.50
3.41
3.33
4.05
3.84
3.80
3.41
3.23
3.25
3.39
3.40
3.49
3.52
3.15
3.55
3.49
3.77
2.49
3.65
13303:
4.24
4.24
3.08
5119:
2.74
2.88
3197:
3.11
3.25
3.25
3.69
3.07
3.47
3.16
3.71
3.47
3.35
3.41
3.11
3.91
3.25
2.81
3.55
3.63
2.96
3.08
3.39
3.40
2.84
3.71
3.04
3.26
4.44
3.48
2.83
3.50
3.25
3.13
3.46
3.70
3.77
3.67
4.10
3.20
3.15
4.05
2.88
2.75
2.88
3.17
3.52
2.86
2.46
3.90
3.30
3.30
2.61
3.10
3.73
3.88
2.66
2.72
3.33
3.80
3.55
3.23
3.73
4.07
4.07
2.66
3.48
2.96
3.26
2.66
3.85
3.50
2.07
4.44
2.92
4.18
3.02
2.22
3.96
3.22
2.99
3.50
3.11
3.39
3.40
2.82
3.20
3.20
2.84
3.81
3.76
3.44
3.02
2.14
2.22
3.15
2.92
4.43
3.30
3.35
3.71
2.57
2.47
3.11
3.55
3.15
3.10
2.92
3.77
3.92
4.01
3.12
3.34
3.19
3.21
3.70
2.71
3.55
3.24
3.30
2.38
3.25
3.78
3.40
3.77
3.39
2.91
3.11
3.64
3.53
2.22
3.11
3.44
3.03
3.87
3.58
3.58
4.34
2.66
3.71
2.79
3.98
3.49
3.88
3.62
4.09
2.96
3.03
4.14
4.06
3.03
2.46
3.76
3.70
3.39
3.84
3.03
3.82
3.46
3.25
1.33
2.76
3.40
3.51
3.34
3.04
2.99
3.01
3.68
3.24
3.88
3.72
3.79
2.07
2.75
3.76
3.57
3.03
3.40
3.18
4.44
2.74
3.70
3.21
3.43
3.39
3.21
3.31
3.75
3.63
3.68
3.26
3.53
2.66
2.97
3.83
3.29
2.66
3.11
4.40
3.47
3.45
4.08
3.24
3.68
2.92
3.03
3.55
4.44
3.01
3.35
3.24
2.90
2.54
3.91
3.15
3.02
2.84
3.55
3.03
3.38
2.66
3.96
2.98
3.77
2.88
3.78
3.16
2.38
4.44
2.81
3.71
3.52
3.20
3.44
3.83
3.62
3.78
3.85
2.84
3.13
2.83
3.04
3.82
3.84
3.39
3.51
3.18
3.70
4.22
3.49
2.85
2.22
2.61
3.59
2.68
3.01
3.54
3.54
2.92
3.69
2.84
3.92
3.34
2.95
3.06
2.89
3.11
2.15
3.31
2.95
2.90
2.85
3.06
3.88
3.20
4.44
3.93
3.22
3.55
3.58
2.97
3.64
3.01
2.78
3.23
3.32
4.21
4.40
2.82
3.68
3.33
4.00
2.79
3.78
3.24
3.73
4.14
2.81
4.01
3.41
3.28
2.72
3.22
3.35
4.03
3.79
3.11
2.66
3.39
2.98
2.15
3.83
3.39
4.09
3.62
3.43
3.36
2.61
3.49
3.81
3.44
2.58
3.03
2.81
3.69
3.28
3.97
3.37
3.98
3.11
3.00
2.84
3.73
3.24
3.13
3.80
3.01
4.10
2.59
3.69
3.94
3.52
2.88
3.11
2.84
3.19
3.17
2.90
4.19
3.76
3.11
3.06
3.08
2194:
3.25
4.35
4.63
2.39
3.43
3.70
4.36
5.06
3.84
3.50
3.76
4.85
3.77
4.63
3.67
3.50
3.27
3.24
4.57
4.05
3.76
2.83
4.57
3.70
3.77
3.86
4.22
3.84
3.70
3.86
4.00
3.83
4.22
3.76
3.19
3977:
2.39
10596:
3.12
4.36
4.26
3.70
2.49
3.23
3.25
3.48
3.79
3.09
3.35
3.22
3.68
3.00
4.17
3.05
2.30
3.70
3.59
3.79
2.49
4.10
4.26
3.32
3.94
2.93
4.28
3.35
2.76
3.48
3.70
2.56
3.33
2.88
2.88
4.32
4.06
3.28
3.21
4.08
2.55
3.23
4.08
3.48
2.54
3.70
3.48
3.43
3.28
3.20
2.56
2.80
3.25
2.66
3.09
3.94
3.28
1215:
3.39
5418:
3.96
3.33
3.24
3.96
3.87
15337:
11584:
3.30
4.05
4.21
4792:
2.80
2.54
2.63
2.43
2.43
2.96
17144:
3.67
4.04
4.04
4.32
4.04
3.39
4.31
4.21
4.26
4.04
4.26
4.32
4.35
4.32
3.67
4.28
3.31
4.91
3.74
4.71
4.86
3.58
4.31
3.95
4.55
3.94
3.15
3.89
3.34
3.39
3.64
3.77
3.11
4.86
3.58
3.11
3.77
3.71
4.32
3.86
4.91
2.94
3.95
2.94
3.67
4.28
3.67
4.04
12003:
4.13
3.94
4.15
3.89
4.05
3.43
4.05
3.10
3.43
1.73
4.10
3.27
3.65
4.13
3.08
4.10
3.94
4.69
4.07
3.94
3.89
2.90
4.15
2.90
4.35
3.56
4.11
4.49
4.11
4.13
3.19
3.08
3.58
16369:
3296:
5621:
3.99
3.91
3.87
3.67
2.85
3.59
2.95
3.00
3.73
3.37
3.48
3.64
4.41
3.59
4.01
3.91
3.82
3.77
3.23
3.08
3.98
3.90
3.90
3.59
3.37
2450:
2.27
2.10
2.82
13047:
4.65
4.70
4.03
4.13
5.29
4.65
4.03
5.29
4.51
4.98
3.88
4.89
3.81
4.89
4.98
3.81
184:
3.94
3.24
3.05
3.48
3.48
3.94
3.63
3.48
2.95
2.53
3.34
3.58
3.07
3.24
3.71
2.95
3.05
3.61
3.24
3.38
3.07
3.63
3.94
3.60
3.34
3.24
2.55
10970:
4.90
4.25
5.03
4.42
4.40
4.63
4.63
4.40
3.90
4.17
3.01
4.10
4.29
4.51
3.84
4.27
4.82
4.89
4.44
2.84
4.64
3.88
3.95
3.86
4.49
4.63
4.17
3.85
3.74
4.89
5.24
3.66
5.22
4.01
3.75
4.17
5.03
4.08
4.27
4.92
3.63
4.17
4.87
3.91
3.59
4.08
4.73
3.26
3.66
4.63
5.37
3.70
5.03
4.07
4.71
3.91
4.87
4.02
5.19
4.56
4.87
3.95
5.12
4.91
3.80
3.26
4.79
3.59
3.67
4.40
4.02
3.62
3.74
4.29
4.51
3.75
4.31
3.98
3.54
4.38
4.02
4.79
4.44
4.66
4.90
4.15
464:
2.70
1836:
2.81
10084:
4.52
3.51
4.83
3.51
3.81
4.21
3.87
3.51
4.61
3.63
4.27
3.92
2.67
4.27
3.51
4.61
2.97
3.58
5002:
3.05
4892:
12995:
3.30
3.18
3.18
11449:
3.42
11763:
2.72
3.21
3.25
2.90
3.21
3.25
3.56
3.56
2.90
2.90
3.38
12750:
2471:
4.40
3.68
4.51
4.18
3.64
4.40
11310:
3.76
13803:
3.63
3.21
3.99
11075:
4.80
3.82
3.40
16340:
3.36
3.23
1935:
3.20
2.32
3.03
2.97
2.83
2.80
3.20
2.89
3.33
2.83
2.86
2.99
2.48
3.17
2.89
3.13
3.01
3.33
3.07
2.70
2.32
2.87
2.87
3.01
3.01
2.61
3.04
3660:
12646:
3.00
1267:
3.40
3.91
4.17
3.34
3.39
3.34
3.66
2.80
3.25
3.62
3.19
3.42
2.47
3.89
3.05
2.80
3.17
4.14
3.26
3.68
3.78
2.47
3.68
3.52
3.87
3.90
3.50
3.91
4.12
2.99
3.32
3.86
3.13
0.92
4.11
3.07
3.50
3.23
4.03
3.91
3.47
3.53
3.29
3.42
3.89
2.85
3.46
3.68
1.90
0.95
